{
    "basename": "asr-subroutines_04-a817e0c",
    "cmd": "lfortran --show-asr --no-color {infile} -o {outfile}",
    "infile": "tests/../integration_tests/subroutines_04.f90",
    "infile_hash": "64a0d218db09c2ed45f26712eeca158f8abd11043df4d26101c06498",
    "outfile": null,
    "outfile_hash": null,
    "stdout": "asr-subroutines_04-a817e0c.stdout",
    "stdout_hash": "dd8f2c613ae38a9f1290c3580524f8394bf731d393b1e88912831aee",
    "stderr": null,
    "stderr_hash": null,
    "returncode": 0
}