{
    "basename": "asr-const_real_dp-fa55d4d",
    "cmd": "lfortran --show-asr --no-color {infile} -o {outfile}",
    "infile": "tests/../integration_tests/const_real_dp.f90",
    "infile_hash": "636cd3c6b6c703b943b251bba6439b2675cd69fb82cd65a43513e971",
    "outfile": null,
    "outfile_hash": null,
    "stdout": "asr-const_real_dp-fa55d4d.stdout",
    "stdout_hash": "755c10bf7aece6816abd0b27d8b1e6b9fcf3a2b75ee79a5c90cd07aa",
    "stderr": null,
    "stderr_hash": null,
    "returncode": 0
}