{
    "basename": "asr-complex_dp-ec165b1",
    "cmd": "lfortran --show-asr --no-color {infile} -o {outfile}",
    "infile": "tests/../integration_tests/complex_dp.f90",
    "infile_hash": "2ab8a19155ace703dc52c1f26d2ecea0db08a49637452b31871a40b2",
    "outfile": null,
    "outfile_hash": null,
    "stdout": "asr-complex_dp-ec165b1.stdout",
    "stdout_hash": "2ce03b8ab62031c8840ce428a01434b94251f66cb6c56651cdc4a145",
    "stderr": null,
    "stderr_hash": null,
    "returncode": 0
}