{
    "basename": "asr-expr4-6c75096",
    "cmd": "lfortran --show-asr --no-color {infile} -o {outfile}",
    "infile": "tests/expr4.f90",
    "infile_hash": "104847f7b62623d6e9d6d752ab2c6c58a31b70bc70a9cae0b5809241",
    "outfile": null,
    "outfile_hash": null,
    "stdout": "asr-expr4-6c75096.stdout",
    "stdout_hash": "859accc4db60b48806f0fbf108069d41c4dd8fac1003a6079ed9ae8a",
    "stderr": null,
    "stderr_hash": null,
    "returncode": 0
}