{
    "basename": "asr-global_scope9-f638dd0",
    "cmd": "lfortran --show-asr --no-color {infile} -o {outfile}",
    "infile": "tests/global_scope9.f90",
    "infile_hash": "29e87c62bbe7f9efedd2e3cf348e80153367ecc0369b16de6f4db296",
    "outfile": null,
    "outfile_hash": null,
    "stdout": "asr-global_scope9-f638dd0.stdout",
    "stdout_hash": "68a338e2b7c1a3a9de22e7ef1c55aee20f1c97afea506aed4c50b69b",
    "stderr": null,
    "stderr_hash": null,
    "returncode": 0
}