{
    "basename": "asr-modules_06-609dd30",
    "cmd": "lfortran --show-asr --no-color {infile} -o {outfile}",
    "infile": "tests/../integration_tests/modules_06.f90",
    "infile_hash": "5c41285ce39e1fc24c7cb3c89e4638d3a606e5d2c48a470da7a245b7",
    "outfile": null,
    "outfile_hash": null,
    "stdout": "asr-modules_06-609dd30.stdout",
    "stdout_hash": "bee3cacc2d0074bbde8398cac509dcf82f4339548b67726ed77455eb",
    "stderr": null,
    "stderr_hash": null,
    "returncode": 0
}