{
    "basename": "asr-intrinsics_03-ef06d46",
    "cmd": "lfortran --show-asr --no-color {infile} -o {outfile}",
    "infile": "tests/../integration_tests/intrinsics_03.f90",
    "infile_hash": "eda277452cad2d7bc3ef98963677fc276c09ce4d517756982a0d921d",
    "outfile": null,
    "outfile_hash": null,
    "stdout": "asr-intrinsics_03-ef06d46.stdout",
    "stdout_hash": "45dadb11020be9189c0147a144d84e434ca98b4324edbae27f6419b6",
    "stderr": null,
    "stderr_hash": null,
    "returncode": 0
}