{
    "basename": "asr-arrays_04_func-9f59ad6",
    "cmd": "lfortran --show-asr --no-color {infile} -o {outfile}",
    "infile": "tests/../integration_tests/arrays_04_func.f90",
    "infile_hash": "50eb699e803e7dace8da286ee49cdb7381ebe3141bff17ca374f1f02",
    "outfile": null,
    "outfile_hash": null,
    "stdout": "asr-arrays_04_func-9f59ad6.stdout",
    "stdout_hash": "85e1a0087e9ab7a871eda8a2998ae51fdcb1773a0d0f068da4d53e36",
    "stderr": null,
    "stderr_hash": null,
    "returncode": 0
}