{
    "basename": "asr-nested_02-8302041",
    "cmd": "lfortran --show-asr --no-color {infile} -o {outfile}",
    "infile": "tests/../integration_tests/nested_02.f90",
    "infile_hash": "ca630d38e8d596a7d4b2db926185e9ec245f6831a9c826a87d669557",
    "outfile": null,
    "outfile_hash": null,
    "stdout": "asr-nested_02-8302041.stdout",
    "stdout_hash": "c05a31eb4dd60e0fb97746d1ed57606a1ca1fc3b6601c92db72a105a",
    "stderr": null,
    "stderr_hash": null,
    "returncode": 0
}