{
    "basename": "asr-arrays_op_1-f8b9cb0",
    "cmd": "lfortran --show-asr --no-color {infile} -o {outfile}",
    "infile": "tests/../integration_tests/arrays_op_1.f90",
    "infile_hash": "be5b09f7d22cbcd7a3e696dd73d60576efa0c24ad30f580af6465613",
    "outfile": null,
    "outfile_hash": null,
    "stdout": "asr-arrays_op_1-f8b9cb0.stdout",
    "stdout_hash": "027ab01d1d1e1a810557dc83796063d3db28ddf7fa19a25fff80ff88",
    "stderr": null,
    "stderr_hash": null,
    "returncode": 0
}