{
    "basename": "asr-parameter_03-d4df941",
    "cmd": "lfortran --show-asr --no-color {infile} -o {outfile}",
    "infile": "tests/../integration_tests/parameter_03.f90",
    "infile_hash": "5f60b01824232c9c934cf71ae5b7f4f54e51457361dc9fefb28092a5",
    "outfile": null,
    "outfile_hash": null,
    "stdout": "asr-parameter_03-d4df941.stdout",
    "stdout_hash": "6ac3debdff2434438e56fce7bd405de61773d51993ad838809edb029",
    "stderr": null,
    "stderr_hash": null,
    "returncode": 0
}