{
    "basename": "asr-derived_types_03-b1d32aa",
    "cmd": "lfortran --show-asr --no-color {infile} -o {outfile}",
    "infile": "tests/../integration_tests/derived_types_03.f90",
    "infile_hash": "fd0a87db249f310cd20a90b39d5eb4627597acf774b62bdb8c4256c4",
    "outfile": null,
    "outfile_hash": null,
    "stdout": "asr-derived_types_03-b1d32aa.stdout",
    "stdout_hash": "4215474aa4a05cb936848d72c76f7f59a8382b6fb4c48a0ee35fecfc",
    "stderr": null,
    "stderr_hash": null,
    "returncode": 0
}