{
    "basename": "asr-fn2-b585098",
    "cmd": "lfortran --show-asr --no-color {infile} -o {outfile}",
    "infile": "tests/fn2.f90",
    "infile_hash": "9f61561c47397aa03014fe07094ac838ada4865e513025e384edae00",
    "outfile": null,
    "outfile_hash": null,
    "stdout": "asr-fn2-b585098.stdout",
    "stdout_hash": "b82dfdaf10ead1be2bb5a85bb003d40883b0a3ad8f8df3480b8a3787",
    "stderr": null,
    "stderr_hash": null,
    "returncode": 0
}