{
    "basename": "asr-program_03-fbe20e8",
    "cmd": "lfortran --show-asr --no-color {infile} -o {outfile}",
    "infile": "tests/../integration_tests/program_03.f90",
    "infile_hash": "66e74edaf380b88bc4d65b0f35934f6857a8e67080628b16bd0e935a",
    "outfile": null,
    "outfile_hash": null,
    "stdout": "asr-program_03-fbe20e8.stdout",
    "stdout_hash": "a2c5b1c2bf394f4712b91f8e0a62e13f6202356920d086ec0d1a8266",
    "stderr": null,
    "stderr_hash": null,
    "returncode": 0
}