{
    "basename": "ast-modules_11-1131557",
    "cmd": "lfortran --show-ast --no-color {infile} -o {outfile}",
    "infile": "tests/../integration_tests/modules_11.f90",
    "infile_hash": "3adf54a582ee98feab0583ed3cb0093df888f323e87e2cb7defcef52",
    "outfile": null,
    "outfile_hash": null,
    "stdout": "ast-modules_11-1131557.stdout",
    "stdout_hash": "d61ac5c7f94821e6610fa26793dd0071f1c421b41d94181310610f59",
    "stderr": null,
    "stderr_hash": null,
    "returncode": 0
}