{
    "basename": "ast-derived_types_03-3580222",
    "cmd": "lfortran --show-ast --no-color {infile} -o {outfile}",
    "infile": "tests/derived_types_03.f90",
    "infile_hash": "0367caa646d88d9d311f2157b87aa8d37c7c09500fea94cc3adacbe3",
    "outfile": null,
    "outfile_hash": null,
    "stdout": "ast-derived_types_03-3580222.stdout",
    "stdout_hash": "7d59b4b8aa778cd79eca9dc51c4529691c18e48ab4984cb05e9473a2",
    "stderr": null,
    "stderr_hash": null,
    "returncode": 0
}