{
    "basename": "ast-interface_01-587eedf",
    "cmd": "lfortran --show-ast --no-color {infile} -o {outfile}",
    "infile": "tests/../integration_tests/interface_01.f90",
    "infile_hash": "56828a66265782f7acd20520a5d25ac6246d6d44dfb8fa758507ed63",
    "outfile": null,
    "outfile_hash": null,
    "stdout": "ast-interface_01-587eedf.stdout",
    "stdout_hash": "35e1ac9c33e0ef3a7c82cccde22dec952d17dc4de0d29a550dfb23e2",
    "stderr": null,
    "stderr_hash": null,
    "returncode": 0
}