{
    "basename": "ast-array1-cceb5f3",
    "cmd": "lfortran --show-ast --no-color {infile} -o {outfile}",
    "infile": "tests/array1.f90",
    "infile_hash": "74ef23b0c6d49a710e5035ce53fa6899eb51ef5e5b693d15108744ca",
    "outfile": null,
    "outfile_hash": null,
    "stdout": "ast-array1-cceb5f3.stdout",
    "stdout_hash": "7ea757dbabfc9b20b594cfa2dbe665d16a921fe5bbb49686a1c29b14",
    "stderr": null,
    "stderr_hash": null,
    "returncode": 0
}