{
    "basename": "ast-open1-df87f77",
    "cmd": "lfortran --show-ast --no-color {infile} -o {outfile}",
    "infile": "tests/open1.f90",
    "infile_hash": "932467cb6b7bcbf97a0b9a7c90ea1ca8074bde26145accfc0bb252c2",
    "outfile": null,
    "outfile_hash": null,
    "stdout": "ast-open1-df87f77.stdout",
    "stdout_hash": "8f4aeb80ac67d0a0e84e5d2aea8b117d71d79286a1ab4e454db58bbf",
    "stderr": null,
    "stderr_hash": null,
    "returncode": 0
}