{
    "basename": "ast-interface3-6416a61",
    "cmd": "lfortran --show-ast --no-color {infile} -o {outfile}",
    "infile": "tests/interface3.f90",
    "infile_hash": "1bc50bebfc86133f4e8266e24509380383857b0510c65dba3406975d",
    "outfile": null,
    "outfile_hash": null,
    "stdout": "ast-interface3-6416a61.stdout",
    "stdout_hash": "35886a8b1a3f43e2af274e9881af3c52e0b08c613a233dca5c0c15b8",
    "stderr": null,
    "stderr_hash": null,
    "returncode": 0
}