{
    "basename": "ast-builtin1-1b5ca89",
    "cmd": "lfortran --show-ast --no-color {infile} -o {outfile}",
    "infile": "tests/builtin1.f90",
    "infile_hash": "1abc89e3393d36647c9f9e3c99558ba4b1ee34b7751424db819e4feb",
    "outfile": null,
    "outfile_hash": null,
    "stdout": "ast-builtin1-1b5ca89.stdout",
    "stdout_hash": "ba5b99fe5928a9913463bfe84a958a6827e79498adca1b7c605393f8",
    "stderr": null,
    "stderr_hash": null,
    "returncode": 0
}