{
    "basename": "ast-parsing_02-740c1e5",
    "cmd": "lfortran --show-ast --no-color {infile} -o {outfile}",
    "infile": "tests/../integration_tests/parsing_02.f90",
    "infile_hash": "9a96b68a8a27fa5a0c4ed1a2afdf6ab322548ac762635d32e202c870",
    "outfile": null,
    "outfile_hash": null,
    "stdout": "ast-parsing_02-740c1e5.stdout",
    "stdout_hash": "d6290315a6dc470e0a125985472b8efddcbe99b5cb2f50e4c00ab00a",
    "stderr": null,
    "stderr_hash": null,
    "returncode": 0
}