{
    "basename": "ast-expr5-3c9d655",
    "cmd": "lfortran --show-ast --no-color {infile} -o {outfile}",
    "infile": "tests/expr5.f90",
    "infile_hash": "030f3f956944c6d24d536fd1f434f877d95bf12aac6f367d2ad1827e",
    "outfile": null,
    "outfile_hash": null,
    "stdout": "ast-expr5-3c9d655.stdout",
    "stdout_hash": "62ff0649557c20497f69e66de28349fc916676f4def8e9becba3ee89",
    "stderr": null,
    "stderr_hash": null,
    "returncode": 0
}