{
    "basename": "ast-do_concurrent_reduce2-1f96d95",
    "cmd": "lfortran --show-ast --no-color {infile} -o {outfile}",
    "infile": "tests/do_concurrent_reduce2.f90",
    "infile_hash": "bfbb329c50d12cea347c298fcc5ba3ee9f192b8b43de74deccf70615",
    "outfile": null,
    "outfile_hash": null,
    "stdout": "ast-do_concurrent_reduce2-1f96d95.stdout",
    "stdout_hash": "35a876f700c94a23222739e7459de08c535da93eb2d31afc4787670f",
    "stderr": null,
    "stderr_hash": null,
    "returncode": 0
}