{
    "basename": "ast-string3-24139f8",
    "cmd": "lfortran --show-ast --no-color {infile} -o {outfile}",
    "infile": "tests/../integration_tests/string3.f90",
    "infile_hash": "90188a84217deb8d16424b3aaf49f0b2a999cad8494cdf536c6d27e1",
    "outfile": null,
    "outfile_hash": null,
    "stdout": "ast-string3-24139f8.stdout",
    "stdout_hash": "5a367806465c00b0e3a3f1af559aaa0d6f76c442f852d4106c6410e1",
    "stderr": null,
    "stderr_hash": null,
    "returncode": 0
}