{
    "basename": "ast-array3-a030743",
    "cmd": "lfortran --show-ast --no-color {infile} -o {outfile}",
    "infile": "tests/array3.f90",
    "infile_hash": "047ac01d7e3df52429d6889258f37213048937dae8611af6cbd9ecae",
    "outfile": null,
    "outfile_hash": null,
    "stdout": "ast-array3-a030743.stdout",
    "stdout_hash": "d87cab99072ce9d24e802afd9cc646f537f42b780a7e0961f52dc57f",
    "stderr": null,
    "stderr_hash": null,
    "returncode": 0
}