{
    "basename": "ast-program2-c0dd48f",
    "cmd": "lfortran --show-ast --no-color {infile} -o {outfile}",
    "infile": "tests/program2.f90",
    "infile_hash": "24e43f660d753021af8fd33127b7d99fe70e9604cbfb321f65ab146a",
    "outfile": null,
    "outfile_hash": null,
    "stdout": "ast-program2-c0dd48f.stdout",
    "stdout_hash": "07cfddd5faac2a5f2bf4b5478c26a30c277e80ad2bd8be87f058f31d",
    "stderr": null,
    "stderr_hash": null,
    "returncode": 0
}