{
    "basename": "ast-arrays_07-5d048ff",
    "cmd": "lfortran --show-ast --no-color {infile} -o {outfile}",
    "infile": "tests/../integration_tests/arrays_07.f90",
    "infile_hash": "43140ddb20889ad30943c7abe8f223591b5f7e6a04cfcbfaf1ad5e3e",
    "outfile": null,
    "outfile_hash": null,
    "stdout": "ast-arrays_07-5d048ff.stdout",
    "stdout_hash": "28819cb70904e9a7ecdc766c5e05e96434ae6b9cf567191cf8586340",
    "stderr": null,
    "stderr_hash": null,
    "returncode": 0
}