{
    "basename": "ast-string1-27ac2e1",
    "cmd": "lfortran --show-ast --no-color {infile} -o {outfile}",
    "infile": "tests/../integration_tests/string1.f90",
    "infile_hash": "d03124d042e49a615db3d1dd14d3c33fb8899181f68c024802cf1372",
    "outfile": null,
    "outfile_hash": null,
    "stdout": "ast-string1-27ac2e1.stdout",
    "stdout_hash": "992566e8180f0bcf8df73e469df357cbec7289a6fecdc25a48bbd489",
    "stderr": null,
    "stderr_hash": null,
    "returncode": 0
}