{
    "basename": "ast-nested_01-a37fe7e",
    "cmd": "lfortran --show-ast --no-color {infile} -o {outfile}",
    "infile": "tests/../integration_tests/nested_01.f90",
    "infile_hash": "4675b48954591a1e2f73ecf9b769ca335945b16b07ff6191f1445a8f",
    "outfile": null,
    "outfile_hash": null,
    "stdout": "ast-nested_01-a37fe7e.stdout",
    "stdout_hash": "de93225aaace9d5b1f15b25c587659b55054a5fbe15e5a046e230d6c",
    "stderr": null,
    "stderr_hash": null,
    "returncode": 0
}