{
    "basename": "ast-do_concurrent_reduce3-9c6ccff",
    "cmd": "lfortran --show-ast --no-color {infile} -o {outfile}",
    "infile": "tests/do_concurrent_reduce3.f90",
    "infile_hash": "68244c7ec55a2abd3a98afa53cf637130918461cb0264902730a72b3",
    "outfile": null,
    "outfile_hash": null,
    "stdout": "ast-do_concurrent_reduce3-9c6ccff.stdout",
    "stdout_hash": "1536f2bfb99a92e5eedecaf16aab882758f11eb2b185730bdb7c07d3",
    "stderr": null,
    "stderr_hash": null,
    "returncode": 0
}