{
    "basename": "ast-array5-2cde105",
    "cmd": "lfortran --show-ast --no-color {infile} -o {outfile}",
    "infile": "tests/array5.f90",
    "infile_hash": "33d963b417ddd6ec562edf7732f7c595264090883fd4b80011b7a39d",
    "outfile": null,
    "outfile_hash": null,
    "stdout": "ast-array5-2cde105.stdout",
    "stdout_hash": "47ba1fdeca9f5cfcffd7130fd2affcfbace43c316e7e751a3539c6ea",
    "stderr": null,
    "stderr_hash": null,
    "returncode": 0
}