{
    "basename": "ast-global_scope2-181c327",
    "cmd": "lfortran --show-ast --no-color {infile} -o {outfile}",
    "infile": "tests/global_scope2.f90",
    "infile_hash": "e511f118b9a040b5e7a3ff2ad75cd7942dee08d3a21bd4ca5cd668b3",
    "outfile": null,
    "outfile_hash": null,
    "stdout": "ast-global_scope2-181c327.stdout",
    "stdout_hash": "7c190575c9a0739eb4146f0bf232b7de3102faa7f8940a481a5dc452",
    "stderr": null,
    "stderr_hash": null,
    "returncode": 0
}