{
    "basename": "ast-Subroutine_Call1-8e53e13",
    "cmd": "lfortran --show-ast --no-color {infile} -o {outfile}",
    "infile": "tests/Subroutine_Call1.f90",
    "infile_hash": "47a186744269355dcf5224f462be7ed2935ada8af8263566675c21e3",
    "outfile": null,
    "outfile_hash": null,
    "stdout": "ast-Subroutine_Call1-8e53e13.stdout",
    "stdout_hash": "acef2f3d967a4cf59f8784c4341ebccb614046c84e8c2cf825c5bdfd",
    "stderr": null,
    "stderr_hash": null,
    "returncode": 0
}