{
    "basename": "ast-global_scope1-dd9aaaa",
    "cmd": "lfortran --show-ast --no-color {infile} -o {outfile}",
    "infile": "tests/global_scope1.f90",
    "infile_hash": "449b38487b6c79754deedb9991f1867bcf8c67d0d93019c2fe15854c",
    "outfile": null,
    "outfile_hash": null,
    "stdout": "ast-global_scope1-dd9aaaa.stdout",
    "stdout_hash": "e8ded3995979d2b8d629dc999b408199d569ba9397e79aaba56209ec",
    "stderr": null,
    "stderr_hash": null,
    "returncode": 0
}