{
    "basename": "ast-parameter_01-746df62",
    "cmd": "lfortran --show-ast --no-color {infile} -o {outfile}",
    "infile": "tests/../integration_tests/parameter_01.f90",
    "infile_hash": "3488de8c55d194f309a915223114321d8596fba6f63399b39ac1ad68",
    "outfile": null,
    "outfile_hash": null,
    "stdout": "ast-parameter_01-746df62.stdout",
    "stdout_hash": "0f45e020b0f9bde935e3a4eabf635699ea2578c33a658bcc853c3573",
    "stderr": null,
    "stderr_hash": null,
    "returncode": 0
}