{
    "basename": "ast-namelist_01-032372e",
    "cmd": "lfortran --show-ast --no-color {infile} -o {outfile}",
    "infile": "tests/../integration_tests/namelist_01.f90",
    "infile_hash": "82b81ebf89597c4cee2bae25cbe602a58d7d628cf9dec14337630861",
    "outfile": null,
    "outfile_hash": null,
    "stdout": "ast-namelist_01-032372e.stdout",
    "stdout_hash": "83c4116754347d636bc99694e435b0da219c813723c7e46555706cf1",
    "stderr": null,
    "stderr_hash": null,
    "returncode": 0
}