{
    "basename": "ast-array2-7b9505c",
    "cmd": "lfortran --show-ast --no-color {infile} -o {outfile}",
    "infile": "tests/array2.f90",
    "infile_hash": "ec67f153c5f506f6a12ef94b06d43c7e9e86b9fc33c9c196029183f0",
    "outfile": null,
    "outfile_hash": null,
    "stdout": "ast-array2-7b9505c.stdout",
    "stdout_hash": "a295ce096b0b9f70c024f9cddac334a1c251bbbf38353a776a3f26f6",
    "stderr": null,
    "stderr_hash": null,
    "returncode": 0
}