{
    "basename": "ast-global_scope3-45d8bdc",
    "cmd": "lfortran --show-ast --no-color {infile} -o {outfile}",
    "infile": "tests/global_scope3.f90",
    "infile_hash": "60cea65abfbb2228d16f175ea192462ae2379d7a9da1601cb3de9f3a",
    "outfile": null,
    "outfile_hash": null,
    "stdout": "ast-global_scope3-45d8bdc.stdout",
    "stdout_hash": "fec8ea3a44ea6277279e9d74881ca5c666757b3d41b39a3f2c2e283f",
    "stderr": null,
    "stderr_hash": null,
    "returncode": 0
}