{
    "basename": "ast-do_concurrent1-5fba0ee",
    "cmd": "lfortran --show-ast --no-color {infile} -o {outfile}",
    "infile": "tests/do_concurrent1.f90",
    "infile_hash": "455e5c83afb64c2316e774aadd27b3dbc48f7ee10948365b50d4e90f",
    "outfile": null,
    "outfile_hash": null,
    "stdout": "ast-do_concurrent1-5fba0ee.stdout",
    "stdout_hash": "1fad8f8e550272fb75c8cedca9747db69e7b936eb3652b2dc0d9a955",
    "stderr": null,
    "stderr_hash": null,
    "returncode": 0
}