{
    "basename": "ast-program_02-2faf7cf",
    "cmd": "lfortran --show-ast --no-color {infile} -o {outfile}",
    "infile": "tests/../integration_tests/program_02.f90",
    "infile_hash": "cfd9e7516e44684e41465abbcb4438aa337500b426c3e8b772e69fbe",
    "outfile": null,
    "outfile_hash": null,
    "stdout": "ast-program_02-2faf7cf.stdout",
    "stdout_hash": "25647b450744ca6ceac06a284493e798dc9208f79614ca4ca7f6b2fc",
    "stderr": null,
    "stderr_hash": null,
    "returncode": 0
}