{
    "basename": "ast_f90-doconcurrentloop_01-8d5be08",
    "cmd": "lfortran --show-ast-f90 --no-color {infile}",
    "infile": "tests/../integration_tests/doconcurrentloop_01.f90",
    "infile_hash": "467f7dbdb5186badc19797a42685003effc780bd17088ab9fcc27efb",
    "outfile": null,
    "outfile_hash": null,
    "stdout": "ast_f90-doconcurrentloop_01-8d5be08.stdout",
    "stdout_hash": "48d77ccc8e1b410eecd71f30c894c52e0f70f0d0f3c5b7138534f706",
    "stderr": null,
    "stderr_hash": null,
    "returncode": 0
}