{
    "basename": "ast_f90-derived_types_03-37bab17",
    "cmd": "lfortran --show-ast-f90 --no-color {infile}",
    "infile": "tests/derived_types_03.f90",
    "infile_hash": "0367caa646d88d9d311f2157b87aa8d37c7c09500fea94cc3adacbe3",
    "outfile": null,
    "outfile_hash": null,
    "stdout": "ast_f90-derived_types_03-37bab17.stdout",
    "stdout_hash": "321b683a0e78603cfec3c482e97a921c46950e8274a653515cc7264e",
    "stderr": null,
    "stderr_hash": null,
    "returncode": 0
}