program builtin_01
implicit none
inquire(unit=n, opened=inuse)
inquire(UNIT=JOAN, OPENED=LOG_01, NAMED=LOG_02, FORM=CHAR_VAR, IOSTAT=IOS)
inquire(IOLENGTH=IOL) A(1:N)
rewind(s)
rewind(s)
rewind(10)
rewind(err=label, unit=s)
backspace(u)
backspace(10, IOSTAT=N)
end program builtin_01
