{
    "basename": "ast_f90-implicit1-5bbb5d3",
    "cmd": "lfortran --show-ast-f90 --no-color {infile}",
    "infile": "tests/implicit1.f90",
    "infile_hash": "90314e7e6719cd19c97dc27721c2e958df3a1da9fb724a403fab3dad",
    "outfile": null,
    "outfile_hash": null,
    "stdout": "ast_f90-implicit1-5bbb5d3.stdout",
    "stdout_hash": "970ea08a4f8b14b03e52d6560e06cbe0055f8c3be680421a576842d8",
    "stderr": null,
    "stderr_hash": null,
    "returncode": 0
}