{
    "basename": "ast_f90-coarrays_01-22f0827",
    "cmd": "lfortran --show-ast-f90 --no-color {infile}",
    "infile": "tests/coarrays_01.f90",
    "infile_hash": "59ffbc4b5f18e1fd05b0979b854668ef1028a8f87b57614e9d42dfa6",
    "outfile": null,
    "outfile_hash": null,
    "stdout": "ast_f90-coarrays_01-22f0827.stdout",
    "stdout_hash": "5d6b7082849c7dd45a3c6d5072f72fdad96dd262a4fc7734a9497db8",
    "stderr": null,
    "stderr_hash": null,
    "returncode": 0
}