{
    "basename": "ast_f90-coarrays_02-cdc1238",
    "cmd": "lfortran --show-ast-f90 --no-color {infile}",
    "infile": "tests/coarrays_02.f90",
    "infile_hash": "b8a582ffc5b086c98bf8f601c32831d648b199fc53bb272628421da9",
    "outfile": null,
    "outfile_hash": null,
    "stdout": "ast_f90-coarrays_02-cdc1238.stdout",
    "stdout_hash": "b88df331e823b8566a24e245e3a4f95a307327e8c65da47aec761efb",
    "stderr": null,
    "stderr_hash": null,
    "returncode": 0
}