{
    "basename": "ast_f90-do_concurrent2-315681d",
    "cmd": "lfortran --show-ast-f90 --no-color {infile}",
    "infile": "tests/do_concurrent2.f90",
    "infile_hash": "afe8788676d4b7be4b765236db5d9c60aa267325a08b714b35ba7eb6",
    "outfile": null,
    "outfile_hash": null,
    "stdout": "ast_f90-do_concurrent2-315681d.stdout",
    "stdout_hash": "54be0334b2004a6aa914e9bad824ef75814c395aaa3dfa162a25a886",
    "stderr": null,
    "stderr_hash": null,
    "returncode": 0
}