{
    "basename": "cpp-subroutine6-a47eddf",
    "cmd": "lfortran --show-cpp {infile}",
    "infile": "tests/subroutine6.f90",
    "infile_hash": "1987bc648e7f4c6205190248a296d000e0f33cb57a996b6c2a6c4804",
    "outfile": null,
    "outfile_hash": null,
    "stdout": "cpp-subroutine6-a47eddf.stdout",
    "stdout_hash": "bcfa062b768248e71faa5c3a37e14e3dc74c6490298bf7985a469d1c",
    "stderr": null,
    "stderr_hash": null,
    "returncode": 0
}