{
    "basename": "cpp-kokkos_program1-574ddd8",
    "cmd": "lfortran --show-cpp {infile}",
    "infile": "tests/kokkos_program1.f90",
    "infile_hash": "81575b3ab7fd1a2dc16c67f0a5ff241d9057fed389befd1c3084d6ea",
    "outfile": null,
    "outfile_hash": null,
    "stdout": "cpp-kokkos_program1-574ddd8.stdout",
    "stdout_hash": "fe6b37e1dd0fec5424d270a853bf1d91d8db5c36046ee57f5ff9934c",
    "stderr": null,
    "stderr_hash": null,
    "returncode": 0
}