{
    "basename": "cpp-kokkos_program2-eba20de",
    "cmd": "lfortran --show-cpp {infile}",
    "infile": "tests/kokkos_program2.f90",
    "infile_hash": "bba0b0329c504e01dd099058af96e20a7fe00294f66456fe3da634e0",
    "outfile": null,
    "outfile_hash": null,
    "stdout": "cpp-kokkos_program2-eba20de.stdout",
    "stdout_hash": "e71fc4dbad4bad842b6fa13a29b70a626a77e85a2d7190f64f7ff707",
    "stderr": null,
    "stderr_hash": null,
    "returncode": 0
}