{
    "basename": "cpp-arrays_01-c49547d",
    "cmd": "lfortran --show-cpp {infile}",
    "infile": "tests/../integration_tests/arrays_01.f90",
    "infile_hash": "f7df4142feb383f836dfa072a60673922e8873b5695f893be8329b89",
    "outfile": null,
    "outfile_hash": null,
    "stdout": "cpp-arrays_01-c49547d.stdout",
    "stdout_hash": "9429b7a98f8cc4451cd886ce56f4699373273270ff5e4d2b00ff1469",
    "stderr": null,
    "stderr_hash": null,
    "returncode": 0
}