{
    "basename": "cpp-types_02-07947c0",
    "cmd": "lfortran --show-cpp {infile}",
    "infile": "tests/../integration_tests/types_02.f90",
    "infile_hash": "6b9728dd8c74663d697504a17537aef00ed9210bf24fae6e7e0468bc",
    "outfile": null,
    "outfile_hash": null,
    "stdout": "cpp-types_02-07947c0.stdout",
    "stdout_hash": "22ac154df84310ca33b498aa3c09e6c55160c4e986c2dab8b7605e6b",
    "stderr": null,
    "stderr_hash": null,
    "returncode": 0
}