{
    "basename": "llvm-global_scope7-ba81b4b",
    "cmd": "lfortran --show-llvm {infile} -o {outfile}",
    "infile": "tests/global_scope7.f90",
    "infile_hash": "b3d005db52f7a57b335928fc6d884d6fdee0654c64fc98c2e797e242",
    "outfile": null,
    "outfile_hash": null,
    "stdout": "llvm-global_scope7-ba81b4b.stdout",
    "stdout_hash": "d530f007abf80f3991322e4476b98c5670d569db9907745ab0cba538",
    "stderr": null,
    "stderr_hash": null,
    "returncode": 0
}