{
    "basename": "llvm-callback_02-cfbbbf7",
    "cmd": "lfortran --show-llvm {infile} -o {outfile}",
    "infile": "tests/../integration_tests/callback_02.f90",
    "infile_hash": "880452ed794b4467313ba9a87318b17fe757a084b2a39129209153d3",
    "outfile": null,
    "outfile_hash": null,
    "stdout": "llvm-callback_02-cfbbbf7.stdout",
    "stdout_hash": "482fbcce1091657a9885993edb116bf02e6a080b0f9a8267203d8cd1",
    "stderr": null,
    "stderr_hash": null,
    "returncode": 0
}