{
    "basename": "llvm-string3-9528793",
    "cmd": "lfortran --show-llvm {infile} -o {outfile}",
    "infile": "tests/../integration_tests/string3.f90",
    "infile_hash": "90188a84217deb8d16424b3aaf49f0b2a999cad8494cdf536c6d27e1",
    "outfile": null,
    "outfile_hash": null,
    "stdout": "llvm-string3-9528793.stdout",
    "stdout_hash": "213c188d9a1eb688d56e131ce1c240a91b9abab15014898bf84bfc68",
    "stderr": null,
    "stderr_hash": null,
    "returncode": 0
}