{
    "basename": "llvm-modules_11-bfc1006",
    "cmd": "lfortran --show-llvm {infile} -o {outfile}",
    "infile": "tests/../integration_tests/modules_11.f90",
    "infile_hash": "3adf54a582ee98feab0583ed3cb0093df888f323e87e2cb7defcef52",
    "outfile": null,
    "outfile_hash": null,
    "stdout": "llvm-modules_11-bfc1006.stdout",
    "stdout_hash": "c942dc6473f2d9712fec09926b4f87e5f20de2a1ea3c27d015bdcd5d",
    "stderr": null,
    "stderr_hash": null,
    "returncode": 0
}