{
    "basename": "llvm-case_03-03df561",
    "cmd": "lfortran --show-llvm {infile} -o {outfile}",
    "infile": "tests/../integration_tests/case_03.f90",
    "infile_hash": "4fc1bb48b2136f22bb44b7c69aaa05a43b4ed2e4b8464c433340295d",
    "outfile": null,
    "outfile_hash": null,
    "stdout": "llvm-case_03-03df561.stdout",
    "stdout_hash": "27b4445532bf2db3ebd1fb71aafcf329c10ad376d816f3e64f987121",
    "stderr": null,
    "stderr_hash": null,
    "returncode": 0
}