{
    "basename": "llvm-complex1-30fe592",
    "cmd": "lfortran --show-llvm {infile} -o {outfile}",
    "infile": "tests/complex1.f90",
    "infile_hash": "3243c29c947c9700891971aae8780afac25cd01387e0307063f3928a",
    "outfile": null,
    "outfile_hash": null,
    "stdout": "llvm-complex1-30fe592.stdout",
    "stdout_hash": "3e1c12df6c4621b87de256742e560d9debfa0b1c9b4342cf5ec82a34",
    "stderr": null,
    "stderr_hash": null,
    "returncode": 0
}