{
    "basename": "llvm-global_scope4-b42dce2",
    "cmd": "lfortran --show-llvm {infile} -o {outfile}",
    "infile": "tests/global_scope4.f90",
    "infile_hash": "da0256e95ad866af376d9ded3cd439463cb1e47dffac6aa88c0bbadf",
    "outfile": null,
    "outfile_hash": null,
    "stdout": "llvm-global_scope4-b42dce2.stdout",
    "stdout_hash": "5836cb7ae28e962cddd5e162900b75cfca076a364ba542e4fa207140",
    "stderr": null,
    "stderr_hash": null,
    "returncode": 0
}