{
    "basename": "llvm-doloop_03-200d807",
    "cmd": "lfortran --show-llvm {infile} -o {outfile}",
    "infile": "tests/../integration_tests/doloop_03.f90",
    "infile_hash": "dcde24e0761d15465d5a4e54aa1cc9a4471c92b32b90f0f0912e298e",
    "outfile": null,
    "outfile_hash": null,
    "stdout": "llvm-doloop_03-200d807.stdout",
    "stdout_hash": "e2b944e45c0b4c06e1514a9181da5747e38aa34771b9a56269a16d8b",
    "stderr": null,
    "stderr_hash": null,
    "returncode": 0
}