{
    "basename": "llvm-complex_dp-cc3ee95",
    "cmd": "lfortran --show-llvm {infile} -o {outfile}",
    "infile": "tests/../integration_tests/complex_dp.f90",
    "infile_hash": "2ab8a19155ace703dc52c1f26d2ecea0db08a49637452b31871a40b2",
    "outfile": null,
    "outfile_hash": null,
    "stdout": "llvm-complex_dp-cc3ee95.stdout",
    "stdout_hash": "e919ad5b7cf4bb1f15a914b5db141072e5b6b05dea578eac566798c7",
    "stderr": null,
    "stderr_hash": null,
    "returncode": 0
}