; ModuleID = 'LFortran'
source_filename = "LFortran"

@x = global i64 0

define i64 @f() {
.entry:
  %f1 = alloca i64, align 8
  store i64 6, i64* @x, align 4
  %0 = load i64, i64* @x, align 4
  store i64 %0, i64* %f1, align 4
  %1 = load i64, i64* %f1, align 4
  ret i64 %1
}

