{
    "basename": "llvm-expr1-74a2ca2",
    "cmd": "lfortran --show-llvm {infile} -o {outfile}",
    "infile": "tests/expr1.f90",
    "infile_hash": "3c49cb3157ec3feaf0f97156e5c11dca0ffd6481c97bb1a5dffaa14f",
    "outfile": null,
    "outfile_hash": null,
    "stdout": "llvm-expr1-74a2ca2.stdout",
    "stdout_hash": "68d502e1f1cadb21553ef7bc74e583d984d9fd8be969fc3d436a6ed0",
    "stderr": null,
    "stderr_hash": null,
    "returncode": 0
}