; ModuleID = 'LFortran'
source_filename = "LFortran"

@i = global i32 1
@j = global i32 2
@0 = private unnamed_addr constant [5 x i8] c"i = \00", align 1
@1 = private unnamed_addr constant [7 x i8] c"%s %d\0A\00", align 1
@2 = private unnamed_addr constant [5 x i8] c"j = \00", align 1
@3 = private unnamed_addr constant [7 x i8] c"%s %d\0A\00", align 1

define void @__module_module_11_access_internally() {
.entry:
  %0 = load i32, i32* @i, align 4
  call void (i8*, ...) @_lfortran_printf(i8* getelementptr inbounds ([7 x i8], [7 x i8]* @1, i32 0, i32 0), i8* getelementptr inbounds ([5 x i8], [5 x i8]* @0, i32 0, i32 0), i32 %0)
  ret void
}

declare void @_lfortran_printf(i8*, ...)

define i32 @main() {
.entry:
  %0 = load i32, i32* @j, align 4
  call void (i8*, ...) @_lfortran_printf(i8* getelementptr inbounds ([7 x i8], [7 x i8]* @3, i32 0, i32 0), i8* getelementptr inbounds ([5 x i8], [5 x i8]* @2, i32 0, i32 0), i32 %0)
  call void @__module_module_11_access_internally()
  ret i32 0
}

